{
	"mappings": {
		"properties": {
			"@timestamp": {
				"type": "date"
			},
			"@version": {
				"fields": {
					"keyword": {
						"ignore_above": 256,
						"type": "keyword"
					}
				},
				"type": "text"
			},
			"access_method": {
				"type": "keyword"
			},
			"access_policy": {
				"type": "keyword"
			},
			"access_type": {
				"type": "keyword"
			},
			"action_type": {
				"fields": {
					"keyword": {
						"ignore_above": 256,
						"type": "keyword"
					}
				},
				"type": "text"
			},
			"client_ip": {
				"fields": {
					"keywords": {
						"ignore_above": 256,
						"type": "keyword"
					}
				},
				"type": "text"
			},
			"client_netname": {
				"fields": {
					"keywords": {
						"ignore_above": 256,
						"type": "keyword"
					}
				},
				"type": "text"
			},
			"client_descr": {
				"fields": {
					"keywords": {
						"ignore_above": 256,
						"type": "keyword"
					}
				},
				"type": "text"
			},
			"client_inetnum": {
				"fields": {
					"keywords": {
						"ignore_above": 256,
						"type": "keyword"
					}
				},
				"type": "text"
			},
			"client_name": {
				"fields": {
					"keywords": {
						"ignore_above": 1024,
						"type": "keyword"
					}
				},
				"type": "text"
			},
			"client_org_type": {
				"type": "keyword"
			},
			"client_domain": {
				"type": "keyword"
			},
			"client_city": {
				"type": "keyword"
			},
			"client_country": {
				"type": "keyword"
			},
			"client_countryCode": {
				"type": "keyword"
			},
			"client_continent": {
				"type": "keyword"
			},
			"client_continentCode": {
				"type": "keyword"
			},
			"client_localisation": {
				"type": "geo_point"
			},
			"client_cidr": {
				"type": "keyword"
			},
			"client_cidr_from": {
				"type": "keyword"
			},
			"consortium": {
				"fields": {
					"keyword": {
						"ignore_above": 256,
						"type": "keyword"
					}
				},
				"type": "text"
			},
			"container_doi": {
				"type": "keyword"
			},
			"container_proprietary_id": {
				"type": "keyword"
			},
			"container_title": {
				"type": "keyword"
			},
			"container_uri": {
				"type": "keyword"
			},
			"content_length": {
				"ignore_malformed": true,
				"type": "integer"
			},
			"ctitle": {
				"type": "keyword"
			},
			"ctitle_doi": {
				"type": "keyword"
			},
			"ctitle_proprietary_id": {
				"type": "keyword"
			},
			"ctitle_uri": {
				"fields": {
					"keyword": {
						"type": "keyword"
					}
				},
				"type": "text"
			},
			"data_type": {
				"type": "keyword"
			},
			"datetime": {
				"format": "iso8601",
				"ignore_malformed": true,
				"type": "date"
			},
			"delivered_content": {
				"type": "keyword"
			},
			"doc_id": {
				"type": "keyword"
			},
			"doi": {
				"type": "keyword"
			},
			"domain": {
				"type": "keyword"
			},
			"embargo_end": {
				"ignore_malformed": true,
				"type": "date"
			},
			"geoip-point": {
				"type": "geo_point"
			},
			"geoip-country": {
				"type": "keyword"
			},
			"geoip-latitude": {
				"ignore_malformed": true,
				"type": "double"
			},
			"geoip-longitude": {
				"ignore_malformed": true,
				"type": "double"
			},
			"host": {
				"properties": {
					"name": {
						"fields": {
							"keyword": {
								"ignore_above": 256,
								"type": "keyword"
							}
						},
						"type": "text"
					}
				}
			},
			"indexDate": {
				"fields": {
					"keyword": {
						"ignore_above": 256,
						"type": "keyword"
					}
				},
				"type": "text"
			},
			"institution_id": {
				"fields": {
					"keyword": {
						"ignore_above": 256,
						"type": "keyword"
					}
				},
				"type": "text"
			},
			"institution_name": {
				"type": "text"
			},
			"isbn": {
				"type": "keyword"
			},
			"log_id": {
				"type": "keyword"
			},
			"mime": {
				"type": "keyword"
			},
			"online_issn": {
				"type": "keyword"
			},
			"platform_id": {
				"type": "keyword"
			},
			"platform_name": {
				"type": "keyword"
			},
			"print_issn": {
				"type": "keyword"
			},
			"publisher": {
				"fields": {
					"keyword": {
						"type": "keyword"
					}
				},
				"type": "text"
			},
			"publisher_id": {
				"type": "keyword"
			},
			"referer": {
				"type": "keyword"
			},
			"section_type": {
				"type": "keyword"
			},
			"session_id": {
				"type": "keyword"
			},
			"site_name": {
				"type": "keyword"
			},
			"status": {
				"ignore_malformed": true,
				"type": "short"
			},
			"title": {
				"fields": {
					"keyword": {
						"type": "keyword"
					}
				},
				"type": "text"
			},
			"type": {
				"type": "keyword"
			},
			"url": {
				"type": "text"
			},
			"user-agent": {
				"type": "text"
			},
			"user_id": {
				"ignore_above": 256,
				"type": "keyword"
			},
			"yop": {
				"ignore_malformed": true,
				"type": "short"
			},
			"oa_id": {
				"type": "keyword"
			},
			"oa_type": {
				"type": "keyword"
			},
			"oa_open_access": {
				"type": "keyword"
			},
			"oa_domains": {
				"type": "keyword"
			},
			"oa_fields": {
				"type": "keyword"
			},
			"oa_subfields": {
				"type": "keyword"
			},
			"oa_apc_list": {
				"type": "integer"
			},
			"oa_apc_paid": {
				"type": "integer"
			},
			"oa_cited_by_count": {
				"type": "integer"
			},
			"oa_cited_by_api_url": {
				"type": "keyword"
			},
			"oa_fwci": {
				"type": "float"
			},
			"oa_funders": {
				"type": "keyword"
			},
			"oa_sustainable_development_goals": {
				"type": "keyword"
			}
		}
	}
}
